\relax 
\newacro{Cinema-MX}{Colour INteractive Editor for Multiple Alignments}
\newacro{MX}{Modular, eXtensible}
\@writefile{toc}{\contentsline {section}{\numberline {1}Introduction}{1}}
\@writefile{toc}{\contentsline {section}{\numberline {2}Requirements}{1}}
\@writefile{toc}{\contentsline {section}{\numberline {3}Identifiers}{2}}
\newlabel{lst:ident}{{1}{2}}
\@writefile{lol}{\contentsline {lstlisting}{\numberline {1}The ModuleIdentifier Interface}{2}}
\newlabel{lst:enum}{{2}{2}}
\@writefile{lol}{\contentsline {lstlisting}{\numberline {2}The Abstract EnumeratedModuleIdentifier}{2}}
\@writefile{toc}{\contentsline {subsection}{\numberline {3.1}Abstract Identifiers}{2}}
\newlabel{sec:abstract-identifiers}{{3.1}{2}}
\@writefile{toc}{\contentsline {section}{\numberline {4}The Module}{3}}
\newlabel{sec:module-1}{{4}{3}}
\newlabel{lst:module}{{3}{3}}
\@writefile{lol}{\contentsline {lstlisting}{\numberline {3}The Module class}{3}}
\newlabel{lst:reqident}{{4}{3}}
\@writefile{lol}{\contentsline {lstlisting}{\numberline {4}An example of getRequiredIdentifiers}{3}}
\newlabel{lst:reqmod}{{5}{3}}
\@writefile{lol}{\contentsline {lstlisting}{\numberline {5}An example of getRequiredModule}{3}}
\@writefile{toc}{\contentsline {subsection}{\numberline {4.1}Other methods}{4}}
\newlabel{sec:other-methods}{{4.1}{4}}
\@writefile{toc}{\contentsline {section}{\numberline {5}XML Loading and Configuration}{4}}
\newlabel{sec:xml-load-conf}{{5}{4}}
\@writefile{toc}{\contentsline {subsection}{\numberline {5.1}Loading}{4}}
\newlabel{sec:loading}{{5.1}{4}}
\newlabel{lst:ident-dir}{{6}{4}}
\@writefile{lol}{\contentsline {lstlisting}{\numberline {6}The Identifier Directive}{4}}
\newlabel{lst:mod-load}{{7}{5}}
\@writefile{lol}{\contentsline {lstlisting}{\numberline {7}Loading a Module}{5}}
\@writefile{toc}{\contentsline {subsection}{\numberline {5.2}Configuration}{5}}
\newlabel{sec:configuration}{{5.2}{5}}
\newlabel{lst:props}{{8}{5}}
\@writefile{lol}{\contentsline {lstlisting}{\numberline {8}Configuring Parsers}{5}}
\newlabel{lst:trees}{{9}{5}}
\@writefile{lol}{\contentsline {lstlisting}{\numberline {9}Configuring the menu system}{5}}
\gdef \LT@i {\LT@entry 
    {1}{115.50105pt}\LT@entry 
    {1}{253.49895pt}}
\newlabel{lst:config}{{10}{6}}
\@writefile{lol}{\contentsline {lstlisting}{\numberline {10}The XML methods}{6}}
\@writefile{toc}{\contentsline {section}{\numberline {6}Cinema-MX\xspace  Modules}{6}}
\newlabel{sec:cinema-modules}{{6}{6}}
\newlabel{lst:cin-mod}{{11}{6}}
\@writefile{lol}{\contentsline {lstlisting}{\numberline {11}The Cinema Module}{6}}
\@writefile{toc}{\contentsline {subsection}{\numberline {6.1}Cinema-MX\xspace  modules in use}{6}}
\newlabel{sec:cinema-modules-use}{{6.1}{6}}
\@writefile{toc}{\contentsline {section}{\numberline {7}Step by Step}{6}}
\newlabel{sec:step-step}{{7}{6}}
\newlabel{tab:modules}{{6.1}{7}}
\@writefile{lot}{\contentsline {table}{\numberline {2}{\ignorespaces The modules in use within the Cinema-MX\xspace  application. The modules are organized by their super class, either the {\ttfamily  \relax \fontsize  {9}{11}\selectfont  \abovedisplayskip 8.5\p@ plus3\p@ minus4\p@ \abovedisplayshortskip \z@ plus2\p@ \belowdisplayshortskip 4\p@ plus2\p@ minus2\p@ \def \leftmargin \leftmargini \parsep 4\p@ plus2\p@ minus\p@ \topsep 8\p@ plus2\p@ minus4\p@ \itemsep 4\p@ plus2\p@ minus\p@ {\leftmargin \leftmargini \topsep 4\p@ plus2\p@ minus2\p@ \parsep 2\p@ plus\p@ minus\p@ \itemsep \parsep }\belowdisplayskip \abovedisplayskip CinemaModule}, the {\ttfamily  \relax \fontsize  {9}{11}\selectfont  \abovedisplayskip 8.5\p@ plus3\p@ minus4\p@ \abovedisplayshortskip \z@ plus2\p@ \belowdisplayshortskip 4\p@ plus2\p@ minus2\p@ \def \leftmargin \leftmargini \parsep 4\p@ plus2\p@ minus\p@ \topsep 8\p@ plus2\p@ minus4\p@ \itemsep 4\p@ plus2\p@ minus\p@ {\leftmargin \leftmargini \topsep 4\p@ plus2\p@ minus2\p@ \parsep 2\p@ plus\p@ minus\p@ \itemsep \parsep }\belowdisplayskip \abovedisplayskip CinemaGuiModule}, or {\ttfamily  \relax \fontsize  {9}{11}\selectfont  \abovedisplayskip 8.5\p@ plus3\p@ minus4\p@ \abovedisplayshortskip \z@ plus2\p@ \belowdisplayshortskip 4\p@ plus2\p@ minus2\p@ \def \leftmargin \leftmargini \parsep 4\p@ plus2\p@ minus\p@ \topsep 8\p@ plus2\p@ minus4\p@ \itemsep 4\p@ plus2\p@ minus\p@ {\leftmargin \leftmargini \topsep 4\p@ plus2\p@ minus2\p@ \parsep 2\p@ plus\p@ minus\p@ \itemsep \parsep }\belowdisplayskip \abovedisplayskip Others}, which are extended from some other module. }}{7}}
